{
  "nepirockcastle": {
    "id": "nepirockcastle",
    "description": "The resulting file will be uploaded at https://{{storage_name}.blob.core.windows.net/{container}/{blob_name}/{dataset_name}",
    "dataset_name": "{buss_client_id}/{location_id}/{interaction_type}/{filename}.{file_extension}",
    "model_name": "{buss_client_id}/{location_id}/{interaction_type}/{filename}",
    "model_bucket": "footprintsforretail-app-mlengine",
    "cloud_storage_conn_id": "wasb_default",
    "storage_name" : "footprintsforretailml",
    "container_name" : "rs-dataset",
    "blob_name" : "nepirockcastle",
    "ffr_conn_id": "ffr_api_nepi",
    "ra_gateway_conn_id": "ra_nepi_gateway",
    "learning_image": "footprintsforretailapp.azurecr.io/rs_learning_container/1.0.1",
    "locations": [
      {
        "id": "all",
        "description": "data from all locations",
        "ra_building_conn_id": "",
        "start_date": "2020-07-22",
        "schedule_interval": "@daily",
        "datasets": [
          {
            "interaction_type": "affinity",
            "interaction_field": "views",
            "filename": "brands",
            "file_extension": "csv",
            "description": "User web affinities like 'views' and 'totalSpend' time on brand pages"
          },
          {
            "interaction_type": "affinity",
            "interaction_field": "views",
            "filename": "interests",
            "file_extension": "csv",
            "description": "User web affinities like 'views' and 'totalSpend' time on interest tagged pages"
          },
          {
            "interaction_type": "geo",
            "filename": "latlon",
            "file_extension": "csv",
            "description": "User lat long pairs"
          }
        ],
        "models": [
          {
            "interaction_type": "affinity",
            "interaction_field": "views",
            "filename": "brands",
            "file_extension": "csv",
            "description": "Matrix Factorization on user, brands, views triples",
            "train_script": "./trainer/mat_fact.py",
            "train_extra_args": [
              "--user-field=users",
              "--item-field=brands",
              "--interaction-field=views"
            ]
          }
        ]
      },
      {
        "id": "59f8385a68a157484ba1d22d",

        "description": "Mega Mall",
        "ra_building_conn_id": "ra_nepi_megamall",
        "start_date": "2020-07-23",
        "schedule_interval": "@daily",
        "datasets": [
          {
            "interaction_type": "affinity",
            "interaction_field": "views",
            "filename": "tenants",
            "file_extension": "csv",
            "description": "User web affinities like 'views' and 'totalTime' on tenant pages"
          },
          {
            "interaction_type": "ptb",
            "interaction_field": "totalSpent/totalReceipts",
            "filename": "tenants",
            "file_extension": "csv",
            "description": "User purchase data like 'totalReceipts' and 'totalSpent' in offline shopping sessions"
          },
          {
            "interaction_type": "visits",
            "filename": "tenants",
            "file_extension": "csv",
            "description": "Anonymous offline visits by tenants ('areas' before tenant mapping)"
          }
        ],
        "models": [
          {
            "interaction_type": "affinity",
            "interaction_field": "views",
            "filename": "tenants",
            "file_extension": "csv",
            "description": "Matrix Factorization on user, tenants, views triples",
            "train_script": "./trainer/mat_fact.py",
            "train_extra_args": [
              "--user-field=users",
              "--item-field=tenants",
              "--interaction-field=views"
            ]
          },
          {
            "interaction_type": "ptb",
            "interaction_field": "views",
            "filename": "tenants",
            "file_extension": "csv",
            "description": "Matrix Factorization on user, tenants, totalSpent/totalReceipts triples",
            "train_script": "./trainer/mat_fact.py",
            "train_extra_args": [
              "--user-field=users",
              "--item-field=tenants",
              "--interaction-field=totalSpent/totalReceipts"
            ]
          },
          {
            "interaction_type": "visits",
            "filename": "tenants",
            "file_extension": "csv",
            "description": "kNN - item based",
            "train_script": "./trainer/knn_rec_sys.py",
            "train_extra_args": [
              "--user-field=visit_id",
              "--item-field=tenant_id",
              "--interaction-field=dwell_time",
              "--item-name-field=tenant_name"
            ]
          },
          {
            "interaction_type": "visits",
            "filename": "tenants",
            "file_extension": "csv",
            "description": "kNN - session based, 'model_custom_prefix' will override the 'filename' in the model blob name construction",
            "train_script": "./trainer/knn_rec_sys.py",
            "train_extra_args": [
              "--user-field=visit_id",
              "--item-field=tenant_id",
              "--interaction-field=dwell_time",
              "--item-name-field=tenant_name",
              "--session-based"
            ],
            "model_custom_prefix": "sessions"
          }
        ]
      }
    ]
  }
}